%YAML 1.1
%TAG !u! tag:unity3d.com,2011:
--- !u!1001 &100100000
Prefab:
  m_ObjectHideFlags: 1
  serializedVersion: 2
  m_Modification:
    m_TransformParent: {fileID: 0}
    m_Modifications: []
    m_RemovedComponents: []
  m_ParentPrefab: {fileID: 0}
  m_RootGameObject: {fileID: 1668122488353312}
  m_IsPrefabParent: 1
--- !u!1 &1260046745105948
GameObject:
  m_ObjectHideFlags: 0
  m_PrefabParentObject: {fileID: 0}
  m_PrefabInternal: {fileID: 100100000}
  serializedVersion: 5
  m_Component:
  - component: {fileID: 4263531904649712}
  - component: {fileID: 114325491009598738}
  - component: {fileID: 23966392755383818}
  - component: {fileID: 33486309314106080}
  - component: {fileID: 114490706802114866}
  - component: {fileID: 64688835724313818}
  m_Layer: 0
  m_Name: Cube
  m_TagString: Untagged
  m_Icon: {fileID: 0}
  m_NavMeshLayer: 0
  m_StaticEditorFlags: 127
  m_IsActive: 1
--- !u!1 &1382983750293994
GameObject:
  m_ObjectHideFlags: 0
  m_PrefabParentObject: {fileID: 0}
  m_PrefabInternal: {fileID: 100100000}
  serializedVersion: 5
  m_Component:
  - component: {fileID: 4339527967824406}
  - component: {fileID: 114950759345249726}
  - component: {fileID: 23823258516475596}
  - component: {fileID: 33821992737425256}
  - component: {fileID: 114441745620836712}
  - component: {fileID: 64874427064257722}
  m_Layer: 0
  m_Name: Stairs
  m_TagString: Untagged
  m_Icon: {fileID: 0}
  m_NavMeshLayer: 0
  m_StaticEditorFlags: 127
  m_IsActive: 1
--- !u!1 &1668122488353312
GameObject:
  m_ObjectHideFlags: 0
  m_PrefabParentObject: {fileID: 0}
  m_PrefabInternal: {fileID: 100100000}
  serializedVersion: 5
  m_Component:
  - component: {fileID: 4249330499582600}
  m_Layer: 0
  m_Name: Ruin Approach Left
  m_TagString: Untagged
  m_Icon: {fileID: 0}
  m_NavMeshLayer: 0
  m_StaticEditorFlags: 0
  m_IsActive: 1
--- !u!4 &4249330499582600
Transform:
  m_ObjectHideFlags: 1
  m_PrefabParentObject: {fileID: 0}
  m_PrefabInternal: {fileID: 100100000}
  m_GameObject: {fileID: 1668122488353312}
  m_LocalRotation: {x: 0, y: 0, z: 0, w: 1}
  m_LocalPosition: {x: 0, y: 0, z: 0}
  m_LocalScale: {x: 1, y: 1, z: 1}
  m_Children:
  - {fileID: 4263531904649712}
  - {fileID: 4339527967824406}
  m_Father: {fileID: 0}
  m_RootOrder: 0
  m_LocalEulerAnglesHint: {x: 0, y: 0, z: 0}
--- !u!4 &4263531904649712
Transform:
  m_ObjectHideFlags: 1
  m_PrefabParentObject: {fileID: 0}
  m_PrefabInternal: {fileID: 100100000}
  m_GameObject: {fileID: 1260046745105948}
  m_LocalRotation: {x: -0.118041456, y: 0.23578268, z: -0.081688255, w: 0.96114504}
  m_LocalPosition: {x: 210.66, y: 60.01, z: 147.35}
  m_LocalScale: {x: 1, y: 1, z: 1}
  m_Children: []
  m_Father: {fileID: 4249330499582600}
  m_RootOrder: 0
  m_LocalEulerAnglesHint: {x: 0, y: 0, z: 0}
--- !u!4 &4339527967824406
Transform:
  m_ObjectHideFlags: 1
  m_PrefabParentObject: {fileID: 0}
  m_PrefabInternal: {fileID: 100100000}
  m_GameObject: {fileID: 1382983750293994}
  m_LocalRotation: {x: -0.049950168, y: -0.78656477, z: -0.120589755, w: 0.6035553}
  m_LocalPosition: {x: 214.17967, y: 59.437458, z: 132.05093}
  m_LocalScale: {x: 1, y: 1, z: 1}
  m_Children: []
  m_Father: {fileID: 4249330499582600}
  m_RootOrder: 1
  m_LocalEulerAnglesHint: {x: 0, y: 0, z: 0}
--- !u!23 &23823258516475596
MeshRenderer:
  m_ObjectHideFlags: 1
  m_PrefabParentObject: {fileID: 0}
  m_PrefabInternal: {fileID: 100100000}
  m_GameObject: {fileID: 1382983750293994}
  m_Enabled: 1
  m_CastShadows: 2
  m_ReceiveShadows: 1
  m_MotionVectors: 1
  m_LightProbeUsage: 1
  m_ReflectionProbeUsage: 1
  m_Materials:
  - {fileID: 2100000, guid: 55296d1b6ee54e14e8eb4648d4b448ee, type: 2}
  m_StaticBatchInfo:
    firstSubMesh: 0
    subMeshCount: 0
  m_StaticBatchRoot: {fileID: 0}
  m_ProbeAnchor: {fileID: 0}
  m_LightProbeVolumeOverride: {fileID: 0}
  m_ScaleInLightmap: 1
  m_PreserveUVs: 0
  m_IgnoreNormalsForChartDetection: 0
  m_ImportantGI: 0
  m_SelectedEditorRenderState: 2
  m_MinimumChartSize: 4
  m_AutoUVMaxDistance: 0.5
  m_AutoUVMaxAngle: 89
  m_LightmapParameters: {fileID: 0}
  m_SortingLayerID: 0
  m_SortingLayer: 0
  m_SortingOrder: 0
--- !u!23 &23966392755383818
MeshRenderer:
  m_ObjectHideFlags: 1
  m_PrefabParentObject: {fileID: 0}
  m_PrefabInternal: {fileID: 100100000}
  m_GameObject: {fileID: 1260046745105948}
  m_Enabled: 1
  m_CastShadows: 2
  m_ReceiveShadows: 1
  m_MotionVectors: 1
  m_LightProbeUsage: 1
  m_ReflectionProbeUsage: 1
  m_Materials:
  - {fileID: 2100000, guid: 55296d1b6ee54e14e8eb4648d4b448ee, type: 2}
  m_StaticBatchInfo:
    firstSubMesh: 0
    subMeshCount: 0
  m_StaticBatchRoot: {fileID: 0}
  m_ProbeAnchor: {fileID: 0}
  m_LightProbeVolumeOverride: {fileID: 0}
  m_ScaleInLightmap: 1
  m_PreserveUVs: 0
  m_IgnoreNormalsForChartDetection: 0
  m_ImportantGI: 0
  m_SelectedEditorRenderState: 2
  m_MinimumChartSize: 4
  m_AutoUVMaxDistance: 0.5
  m_AutoUVMaxAngle: 89
  m_LightmapParameters: {fileID: 0}
  m_SortingLayerID: 0
  m_SortingLayer: 0
  m_SortingOrder: 0
--- !u!33 &33486309314106080
MeshFilter:
  m_ObjectHideFlags: 1
  m_PrefabParentObject: {fileID: 0}
  m_PrefabInternal: {fileID: 100100000}
  m_GameObject: {fileID: 1260046745105948}
  m_Mesh: {fileID: 0}
--- !u!33 &33821992737425256
MeshFilter:
  m_ObjectHideFlags: 1
  m_PrefabParentObject: {fileID: 0}
  m_PrefabInternal: {fileID: 100100000}
  m_GameObject: {fileID: 1382983750293994}
  m_Mesh: {fileID: 0}
--- !u!64 &64688835724313818
MeshCollider:
  m_ObjectHideFlags: 1
  m_PrefabParentObject: {fileID: 0}
  m_PrefabInternal: {fileID: 100100000}
  m_GameObject: {fileID: 1260046745105948}
  m_Material: {fileID: 0}
  m_IsTrigger: 0
  m_Enabled: 1
  serializedVersion: 2
  m_Convex: 0
  m_InflateMesh: 0
  m_SkinWidth: 0.01
  m_Mesh: {fileID: 0}
--- !u!64 &64874427064257722
MeshCollider:
  m_ObjectHideFlags: 1
  m_PrefabParentObject: {fileID: 0}
  m_PrefabInternal: {fileID: 100100000}
  m_GameObject: {fileID: 1382983750293994}
  m_Material: {fileID: 0}
  m_IsTrigger: 0
  m_Enabled: 1
  serializedVersion: 2
  m_Convex: 0
  m_InflateMesh: 0
  m_SkinWidth: 0.01
  m_Mesh: {fileID: 0}
--- !u!114 &114325491009598738
MonoBehaviour:
  m_ObjectHideFlags: 1
  m_PrefabParentObject: {fileID: 0}
  m_PrefabInternal: {fileID: 100100000}
  m_GameObject: {fileID: 1260046745105948}
  m_Enabled: 1
  m_EditorHideFlags: 0
  m_Script: {fileID: 16342205, guid: 0472bdc8d6d15384d98f22ee34302f9c, type: 3}
  m_Name: 
  m_EditorClassIdentifier: 
  _entityType: 0
--- !u!114 &114441745620836712
MonoBehaviour:
  m_ObjectHideFlags: 1
  m_PrefabParentObject: {fileID: 0}
  m_PrefabInternal: {fileID: 100100000}
  m_GameObject: {fileID: 1382983750293994}
  m_Enabled: 1
  m_EditorHideFlags: 0
  m_Script: {fileID: 185759285, guid: 0472bdc8d6d15384d98f22ee34302f9c, type: 3}
  m_Name: 
  m_EditorClassIdentifier: 
  _quads:
  - _indices: 000000000100000002000000010000000300000002000000
    _distinctIndices: 00000000010000000200000003000000
    _edges:
    - x: 0
      y: 1
    - x: 2
      y: 0
    - x: 1
      y: 3
    - x: 3
      y: 2
    _smoothingGroup: 0
    _uv:
      useWorldSpace: 0
      flipU: 0
      flipV: 0
      swapUV: 0
      fill: 1
      scale: {x: 1, y: 1}
      offset: {x: 0, y: 0}
      rotation: 0
      justify: 0
      localPivot: {x: -2, y: 0.09375}
      localSize: {x: 0, y: 0}
      anchor: 9
    _mat: {fileID: 2100000, guid: 55296d1b6ee54e14e8eb4648d4b448ee, type: 2}
    manualUV: 0
    elementGroup: 0
    textureGroup: -1
  - _indices: 040000000500000006000000050000000700000006000000
    _distinctIndices: 04000000050000000600000007000000
    _edges:
    - x: 4
      y: 5
    - x: 6
      y: 4
    - x: 5
      y: 7
    - x: 7
      y: 6
    _smoothingGroup: 0
    _uv:
      useWorldSpace: 0
      flipU: 0
      flipV: 0
      swapUV: 0
      fill: 1
      scale: {x: 1, y: 1}
      offset: {x: 0, y: 0}
      rotation: 0
      justify: 0
      localPivot: {x: -2, y: 0.21875}
      localSize: {x: 0, y: 0}
      anchor: 9
    _mat: {fileID: 2100000, guid: 55296d1b6ee54e14e8eb4648d4b448ee, type: 2}
    manualUV: 0
    elementGroup: 0
    textureGroup: -1
  - _indices: 08000000090000000a000000090000000b0000000a000000
    _distinctIndices: 08000000090000000a0000000b000000
    _edges:
    - x: 8
      y: 9
    - x: 10
      y: 8
    - x: 9
      y: 11
    - x: 11
      y: 10
    _smoothingGroup: 0
    _uv:
      useWorldSpace: 0
      flipU: 0
      flipV: 0
      swapUV: 0
      fill: 1
      scale: {x: 1, y: 1}
      offset: {x: 0, y: 0}
      rotation: 0
      justify: 0
      localPivot: {x: -2, y: 0.28125}
      localSize: {x: 0, y: 0}
      anchor: 9
    _mat: {fileID: 2100000, guid: 55296d1b6ee54e14e8eb4648d4b448ee, type: 2}
    manualUV: 0
    elementGroup: 0
    textureGroup: -1
  - _indices: 0c0000000d0000000e0000000d0000000f0000000e000000
    _distinctIndices: 0c0000000d0000000e0000000f000000
    _edges:
    - x: 12
      y: 13
    - x: 14
      y: 12
    - x: 13
      y: 15
    - x: 15
      y: 14
    _smoothingGroup: 0
    _uv:
      useWorldSpace: 0
      flipU: 0
      flipV: 0
      swapUV: 0
      fill: 1
      scale: {x: 1, y: 1}
      offset: {x: 0, y: 0}
      rotation: 0
      justify: 0
      localPivot: {x: -2, y: 0.65625}
      localSize: {x: 0, y: 0}
      anchor: 9
    _mat: {fileID: 2100000, guid: 55296d1b6ee54e14e8eb4648d4b448ee, type: 2}
    manualUV: 0
    elementGroup: 0
    textureGroup: -1
  - _indices: 100000001100000012000000110000001300000012000000
    _distinctIndices: 10000000110000001200000013000000
    _edges:
    - x: 16
      y: 17
    - x: 18
      y: 16
    - x: 17
      y: 19
    - x: 19
      y: 18
    _smoothingGroup: 0
    _uv:
      useWorldSpace: 0
      flipU: 0
      flipV: 0
      swapUV: 0
      fill: 1
      scale: {x: 1, y: 1}
      offset: {x: 0, y: 0}
      rotation: 0
      justify: 0
      localPivot: {x: -2, y: 0.46875}
      localSize: {x: 0, y: 0}
      anchor: 9
    _mat: {fileID: 2100000, guid: 55296d1b6ee54e14e8eb4648d4b448ee, type: 2}
    manualUV: 0
    elementGroup: 0
    textureGroup: -1
  - _indices: 140000001500000016000000150000001700000016000000
    _distinctIndices: 14000000150000001600000017000000
    _edges:
    - x: 20
      y: 21
    - x: 22
      y: 20
    - x: 21
      y: 23
    - x: 23
      y: 22
    _smoothingGroup: 0
    _uv:
      useWorldSpace: 0
      flipU: 0
      flipV: 0
      swapUV: 0
      fill: 1
      scale: {x: 1, y: 1}
      offset: {x: 0, y: 0}
      rotation: 0
      justify: 0
      localPivot: {x: -2, y: 1.09375}
      localSize: {x: 0, y: 0}
      anchor: 9
    _mat: {fileID: 2100000, guid: 55296d1b6ee54e14e8eb4648d4b448ee, type: 2}
    manualUV: 0
    elementGroup: 0
    textureGroup: -1
  - _indices: 18000000190000001a000000190000001b0000001a000000
    _distinctIndices: 18000000190000001a0000001b000000
    _edges:
    - x: 24
      y: 25
    - x: 26
      y: 24
    - x: 25
      y: 27
    - x: 27
      y: 26
    _smoothingGroup: 0
    _uv:
      useWorldSpace: 0
      flipU: 0
      flipV: 0
      swapUV: 0
      fill: 1
      scale: {x: 1, y: 1}
      offset: {x: 0, y: 0}
      rotation: 0
      justify: 0
      localPivot: {x: -2, y: 0.65625}
      localSize: {x: 0, y: 0}
      anchor: 9
    _mat: {fileID: 2100000, guid: 55296d1b6ee54e14e8eb4648d4b448ee, type: 2}
    manualUV: 0
    elementGroup: 0
    textureGroup: -1
  - _indices: 1c0000001d0000001e0000001d0000001f0000001e000000
    _distinctIndices: 1c0000001d0000001e0000001f000000
    _edges:
    - x: 28
      y: 29
    - x: 30
      y: 28
    - x: 29
      y: 31
    - x: 31
      y: 30
    _smoothingGroup: 0
    _uv:
      useWorldSpace: 0
      flipU: 0
      flipV: 0
      swapUV: 0
      fill: 1
      scale: {x: 1, y: 1}
      offset: {x: 0, y: 0}
      rotation: 0
      justify: 0
      localPivot: {x: -2, y: 1.53125}
      localSize: {x: 0, y: 0}
      anchor: 9
    _mat: {fileID: 2100000, guid: 55296d1b6ee54e14e8eb4648d4b448ee, type: 2}
    manualUV: 0
    elementGroup: 0
    textureGroup: -1
  - _indices: 200000002100000022000000210000002300000022000000
    _distinctIndices: 20000000210000002200000023000000
    _edges:
    - x: 32
      y: 33
    - x: 34
      y: 32
    - x: 33
      y: 35
    - x: 35
      y: 34
    _smoothingGroup: 0
    _uv:
      useWorldSpace: 0
      flipU: 0
      flipV: 0
      swapUV: 0
      fill: 1
      scale: {x: 1, y: 1}
      offset: {x: 0, y: 0}
      rotation: 0
      justify: 0
      localPivot: {x: -2, y: 0.84375}
      localSize: {x: 0, y: 0}
      anchor: 9
    _mat: {fileID: 2100000, guid: 55296d1b6ee54e14e8eb4648d4b448ee, type: 2}
    manualUV: 0
    elementGroup: 0
    textureGroup: -1
  - _indices: 240000002500000026000000250000002700000026000000
    _distinctIndices: 24000000250000002600000027000000
    _edges:
    - x: 36
      y: 37
    - x: 38
      y: 36
    - x: 37
      y: 39
    - x: 39
      y: 38
    _smoothingGroup: 0
    _uv:
      useWorldSpace: 0
      flipU: 0
      flipV: 0
      swapUV: 0
      fill: 1
      scale: {x: 1, y: 1}
      offset: {x: 0, y: 0}
      rotation: 0
      justify: 0
      localPivot: {x: -2, y: 1.96875}
      localSize: {x: 0, y: 0}
      anchor: 9
    _mat: {fileID: 2100000, guid: 55296d1b6ee54e14e8eb4648d4b448ee, type: 2}
    manualUV: 0
    elementGroup: 0
    textureGroup: -1
  - _indices: 28000000290000002a000000290000002b0000002a000000
    _distinctIndices: 28000000290000002a0000002b000000
    _edges:
    - x: 40
      y: 41
    - x: 42
      y: 40
    - x: 41
      y: 43
    - x: 43
      y: 42
    _smoothingGroup: 0
    _uv:
      useWorldSpace: 0
      flipU: 0
      flipV: 0
      swapUV: 0
      fill: 1
      scale: {x: 1, y: 1}
      offset: {x: 0, y: 0}
      rotation: 0
      justify: 0
      localPivot: {x: -2, y: 1.03125}
      localSize: {x: 0, y: 0}
      anchor: 9
    _mat: {fileID: 2100000, guid: 55296d1b6ee54e14e8eb4648d4b448ee, type: 2}
    manualUV: 0
    elementGroup: 0
    textureGroup: -1
  - _indices: 2c0000002d0000002e0000002d0000002f0000002e000000
    _distinctIndices: 2c0000002d0000002e0000002f000000
    _edges:
    - x: 44
      y: 45
    - x: 46
      y: 44
    - x: 45
      y: 47
    - x: 47
      y: 46
    _smoothingGroup: 0
    _uv:
      useWorldSpace: 0
      flipU: 0
      flipV: 0
      swapUV: 0
      fill: 1
      scale: {x: 1, y: 1}
      offset: {x: 0, y: 0}
      rotation: 0
      justify: 0
      localPivot: {x: -2, y: 2.40625}
      localSize: {x: 0, y: 0}
      anchor: 9
    _mat: {fileID: 2100000, guid: 55296d1b6ee54e14e8eb4648d4b448ee, type: 2}
    manualUV: 0
    elementGroup: 0
    textureGroup: -1
  - _indices: 300000003100000032000000310000003300000032000000
    _distinctIndices: 30000000310000003200000033000000
    _edges:
    - x: 48
      y: 49
    - x: 50
      y: 48
    - x: 49
      y: 51
    - x: 51
      y: 50
    _smoothingGroup: 0
    _uv:
      useWorldSpace: 0
      flipU: 0
      flipV: 0
      swapUV: 0
      fill: 1
      scale: {x: 1, y: 1}
      offset: {x: 0, y: 0}
      rotation: 0
      justify: 0
      localPivot: {x: -2, y: 1.21875}
      localSize: {x: 0, y: 0}
      anchor: 9
    _mat: {fileID: 2100000, guid: 55296d1b6ee54e14e8eb4648d4b448ee, type: 2}
    manualUV: 0
    elementGroup: 0
    textureGroup: -1
  - _indices: 340000003500000036000000350000003700000036000000
    _distinctIndices: 34000000350000003600000037000000
    _edges:
    - x: 52
      y: 53
    - x: 54
      y: 52
    - x: 53
      y: 55
    - x: 55
      y: 54
    _smoothingGroup: 0
    _uv:
      useWorldSpace: 0
      flipU: 0
      flipV: 0
      swapUV: 0
      fill: 1
      scale: {x: 1, y: 1}
      offset: {x: 0, y: 0}
      rotation: 0
      justify: 0
      localPivot: {x: -2, y: 2.84375}
      localSize: {x: 0, y: 0}
      anchor: 9
    _mat: {fileID: 2100000, guid: 55296d1b6ee54e14e8eb4648d4b448ee, type: 2}
    manualUV: 0
    elementGroup: 0
    textureGroup: -1
  - _indices: 38000000390000003a000000390000003b0000003a000000
    _distinctIndices: 38000000390000003a0000003b000000
    _edges:
    - x: 56
      y: 57
    - x: 58
      y: 56
    - x: 57
      y: 59
    - x: 59
      y: 58
    _smoothingGroup: 0
    _uv:
      useWorldSpace: 0
      flipU: 0
      flipV: 0
      swapUV: 0
      fill: 1
      scale: {x: 1, y: 1}
      offset: {x: 0, y: 0}
      rotation: 0
      justify: 0
      localPivot: {x: -2, y: 1.40625}
      localSize: {x: 0, y: 0}
      anchor: 9
    _mat: {fileID: 2100000, guid: 55296d1b6ee54e14e8eb4648d4b448ee, type: 2}
    manualUV: 0
    elementGroup: 0
    textureGroup: -1
  - _indices: 3c0000003d0000003e0000003d0000003f0000003e000000
    _distinctIndices: 3c0000003d0000003e0000003f000000
    _edges:
    - x: 60
      y: 61
    - x: 62
      y: 60
    - x: 61
      y: 63
    - x: 63
      y: 62
    _smoothingGroup: 0
    _uv:
      useWorldSpace: 0
      flipU: 0
      flipV: 0
      swapUV: 0
      fill: 1
      scale: {x: 1, y: 1}
      offset: {x: 0, y: 0}
      rotation: 0
      justify: 0
      localPivot: {x: -2, y: 3.28125}
      localSize: {x: 0, y: 0}
      anchor: 9
    _mat: {fileID: 2100000, guid: 55296d1b6ee54e14e8eb4648d4b448ee, type: 2}
    manualUV: 0
    elementGroup: 0
    textureGroup: -1
  - _indices: 400000004100000042000000410000004300000042000000
    _distinctIndices: 40000000410000004200000043000000
    _edges:
    - x: 64
      y: 65
    - x: 66
      y: 64
    - x: 65
      y: 67
    - x: 67
      y: 66
    _smoothingGroup: 0
    _uv:
      useWorldSpace: 0
      flipU: 0
      flipV: 0
      swapUV: 0
      fill: 1
      scale: {x: 1, y: 1}
      offset: {x: 0, y: 0}
      rotation: 0
      justify: 0
      localPivot: {x: 1.75, y: 0.75}
      localSize: {x: 0, y: 0}
      anchor: 9
    _mat: {fileID: 2100000, guid: 55296d1b6ee54e14e8eb4648d4b448ee, type: 2}
    manualUV: 0
    elementGroup: 0
    textureGroup: 1
  - _indices: 440000004500000046000000450000004700000046000000
    _distinctIndices: 44000000450000004600000047000000
    _edges:
    - x: 68
      y: 69
    - x: 70
      y: 68
    - x: 69
      y: 71
    - x: 71
      y: 70
    _smoothingGroup: 0
    _uv:
      useWorldSpace: 0
      flipU: 0
      flipV: 0
      swapUV: 0
      fill: 1
      scale: {x: 1, y: 1}
      offset: {x: 0, y: 0}
      rotation: 0
      justify: 0
      localPivot: {x: 1.75, y: 0.75}
      localSize: {x: 0, y: 0}
      anchor: 9
    _mat: {fileID: 2100000, guid: 55296d1b6ee54e14e8eb4648d4b448ee, type: 2}
    manualUV: 0
    elementGroup: 0
    textureGroup: 1
  - _indices: 4a0000004900000048000000
    _distinctIndices: 4a0000004900000048000000
    _edges:
    - x: 74
      y: 73
    - x: 73
      y: 72
    - x: 72
      y: 74
    _smoothingGroup: 0
    _uv:
      useWorldSpace: 0
      flipU: 0
      flipV: 0
      swapUV: 0
      fill: 1
      scale: {x: 1, y: 1}
      offset: {x: 0, y: 0}
      rotation: 0
      justify: 0
      localPivot: {x: 1.75, y: 0.75}
      localSize: {x: 0, y: 0}
      anchor: 9
    _mat: {fileID: 2100000, guid: 55296d1b6ee54e14e8eb4648d4b448ee, type: 2}
    manualUV: 0
    elementGroup: 0
    textureGroup: 1
  - _indices: 4b0000004c0000004d0000004c0000004e0000004d000000
    _distinctIndices: 4b0000004c0000004d0000004e000000
    _edges:
    - x: 75
      y: 76
    - x: 77
      y: 75
    - x: 76
      y: 78
    - x: 78
      y: 77
    _smoothingGroup: 0
    _uv:
      useWorldSpace: 0
      flipU: 0
      flipV: 0
      swapUV: 0
      fill: 1
      scale: {x: 1, y: 1}
      offset: {x: 0, y: 0}
      rotation: 0
      justify: 0
      localPivot: {x: 1.75, y: 0.75}
      localSize: {x: 0, y: 0}
      anchor: 9
    _mat: {fileID: 2100000, guid: 55296d1b6ee54e14e8eb4648d4b448ee, type: 2}
    manualUV: 0
    elementGroup: 0
    textureGroup: 1
  - _indices: 51000000500000004f000000
    _distinctIndices: 51000000500000004f000000
    _edges:
    - x: 81
      y: 80
    - x: 80
      y: 79
    - x: 79
      y: 81
    _smoothingGroup: 0
    _uv:
      useWorldSpace: 0
      flipU: 0
      flipV: 0
      swapUV: 0
      fill: 1
      scale: {x: 1, y: 1}
      offset: {x: 0, y: 0}
      rotation: 0
      justify: 0
      localPivot: {x: 1.75, y: 0.75}
      localSize: {x: 0, y: 0}
      anchor: 9
    _mat: {fileID: 2100000, guid: 55296d1b6ee54e14e8eb4648d4b448ee, type: 2}
    manualUV: 0
    elementGroup: 0
    textureGroup: 1
  - _indices: 520000005300000054000000530000005500000054000000
    _distinctIndices: 52000000530000005400000055000000
    _edges:
    - x: 82
      y: 83
    - x: 84
      y: 82
    - x: 83
      y: 85
    - x: 85
      y: 84
    _smoothingGroup: 0
    _uv:
      useWorldSpace: 0
      flipU: 0
      flipV: 0
      swapUV: 0
      fill: 1
      scale: {x: 1, y: 1}
      offset: {x: 0, y: 0}
      rotation: 0
      justify: 0
      localPivot: {x: 1.75, y: 0.75}
      localSize: {x: 0, y: 0}
      anchor: 9
    _mat: {fileID: 2100000, guid: 55296d1b6ee54e14e8eb4648d4b448ee, type: 2}
    manualUV: 0
    elementGroup: 0
    textureGroup: 1
  - _indices: 580000005700000056000000
    _distinctIndices: 580000005700000056000000
    _edges:
    - x: 88
      y: 87
    - x: 87
      y: 86
    - x: 86
      y: 88
    _smoothingGroup: 0
    _uv:
      useWorldSpace: 0
      flipU: 0
      flipV: 0
      swapUV: 0
      fill: 1
      scale: {x: 1, y: 1}
      offset: {x: 0, y: 0}
      rotation: 0
      justify: 0
      localPivot: {x: 1.75, y: 0.75}
      localSize: {x: 0, y: 0}
      anchor: 9
    _mat: {fileID: 2100000, guid: 55296d1b6ee54e14e8eb4648d4b448ee, type: 2}
    manualUV: 0
    elementGroup: 0
    textureGroup: 1
  - _indices: 590000005a0000005b0000005a0000005c0000005b000000
    _distinctIndices: 590000005a0000005b0000005c000000
    _edges:
    - x: 89
      y: 90
    - x: 91
      y: 89
    - x: 90
      y: 92
    - x: 92
      y: 91
    _smoothingGroup: 0
    _uv:
      useWorldSpace: 0
      flipU: 0
      flipV: 0
      swapUV: 0
      fill: 1
      scale: {x: 1, y: 1}
      offset: {x: 0, y: 0}
      rotation: 0
      justify: 0
      localPivot: {x: 1.75, y: 0.75}
      localSize: {x: 0, y: 0}
      anchor: 9
    _mat: {fileID: 2100000, guid: 55296d1b6ee54e14e8eb4648d4b448ee, type: 2}
    manualUV: 0
    elementGroup: 0
    textureGroup: 1
  - _indices: 5f0000005e0000005d000000
    _distinctIndices: 5f0000005e0000005d000000
    _edges:
    - x: 95
      y: 94
    - x: 94
      y: 93
    - x: 93
      y: 95
    _smoothingGroup: 0
    _uv:
      useWorldSpace: 0
      flipU: 0
      flipV: 0
      swapUV: 0
      fill: 1
      scale: {x: 1, y: 1}
      offset: {x: 0, y: 0}
      rotation: 0
      justify: 0
      localPivot: {x: 1.75, y: 0.75}
      localSize: {x: 0, y: 0}
      anchor: 9
    _mat: {fileID: 2100000, guid: 55296d1b6ee54e14e8eb4648d4b448ee, type: 2}
    manualUV: 0
    elementGroup: 0
    textureGroup: 1
  - _indices: 600000006100000062000000610000006300000062000000
    _distinctIndices: 60000000610000006200000063000000
    _edges:
    - x: 96
      y: 97
    - x: 98
      y: 96
    - x: 97
      y: 99
    - x: 99
      y: 98
    _smoothingGroup: 0
    _uv:
      useWorldSpace: 0
      flipU: 0
      flipV: 0
      swapUV: 0
      fill: 1
      scale: {x: 1, y: 1}
      offset: {x: 0, y: 0}
      rotation: 0
      justify: 0
      localPivot: {x: 1.75, y: 0.75}
      localSize: {x: 0, y: 0}
      anchor: 9
    _mat: {fileID: 2100000, guid: 55296d1b6ee54e14e8eb4648d4b448ee, type: 2}
    manualUV: 0
    elementGroup: 0
    textureGroup: 1
  - _indices: 660000006500000064000000
    _distinctIndices: 660000006500000064000000
    _edges:
    - x: 102
      y: 101
    - x: 101
      y: 100
    - x: 100
      y: 102
    _smoothingGroup: 0
    _uv:
      useWorldSpace: 0
      flipU: 0
      flipV: 0
      swapUV: 0
      fill: 1
      scale: {x: 1, y: 1}
      offset: {x: 0, y: 0}
      rotation: 0
      justify: 0
      localPivot: {x: 1.75, y: 0.75}
      localSize: {x: 0, y: 0}
      anchor: 9
    _mat: {fileID: 2100000, guid: 55296d1b6ee54e14e8eb4648d4b448ee, type: 2}
    manualUV: 0
    elementGroup: 0
    textureGroup: 1
  - _indices: 670000006800000069000000680000006a00000069000000
    _distinctIndices: 6700000068000000690000006a000000
    _edges:
    - x: 103
      y: 104
    - x: 105
      y: 103
    - x: 104
      y: 106
    - x: 106
      y: 105
    _smoothingGroup: 0
    _uv:
      useWorldSpace: 0
      flipU: 0
      flipV: 0
      swapUV: 0
      fill: 1
      scale: {x: 1, y: 1}
      offset: {x: 0, y: 0}
      rotation: 0
      justify: 0
      localPivot: {x: 1.75, y: 0.75}
      localSize: {x: 0, y: 0}
      anchor: 9
    _mat: {fileID: 2100000, guid: 55296d1b6ee54e14e8eb4648d4b448ee, type: 2}
    manualUV: 0
    elementGroup: 0
    textureGroup: 1
  - _indices: 6d0000006c0000006b000000
    _distinctIndices: 6d0000006c0000006b000000
    _edges:
    - x: 109
      y: 108
    - x: 108
      y: 107
    - x: 107
      y: 109
    _smoothingGroup: 0
    _uv:
      useWorldSpace: 0
      flipU: 0
      flipV: 0
      swapUV: 0
      fill: 1
      scale: {x: 1, y: 1}
      offset: {x: 0, y: 0}
      rotation: 0
      justify: 0
      localPivot: {x: 1.75, y: 0.75}
      localSize: {x: 0, y: 0}
      anchor: 9
    _mat: {fileID: 2100000, guid: 55296d1b6ee54e14e8eb4648d4b448ee, type: 2}
    manualUV: 0
    elementGroup: 0
    textureGroup: 1
  - _indices: 6e0000006f000000700000006f0000007100000070000000
    _distinctIndices: 6e0000006f0000007000000071000000
    _edges:
    - x: 110
      y: 111
    - x: 112
      y: 110
    - x: 111
      y: 113
    - x: 113
      y: 112
    _smoothingGroup: 0
    _uv:
      useWorldSpace: 0
      flipU: 0
      flipV: 0
      swapUV: 0
      fill: 1
      scale: {x: 1, y: 1}
      offset: {x: 0, y: 0}
      rotation: 0
      justify: 0
      localPivot: {x: 1.75, y: 0.75}
      localSize: {x: 0, y: 0}
      anchor: 9
    _mat: {fileID: 2100000, guid: 55296d1b6ee54e14e8eb4648d4b448ee, type: 2}
    manualUV: 0
    elementGroup: 0
    textureGroup: 1
  - _indices: 740000007300000072000000
    _distinctIndices: 740000007300000072000000
    _edges:
    - x: 116
      y: 115
    - x: 115
      y: 114
    - x: 114
      y: 116
    _smoothingGroup: 0
    _uv:
      useWorldSpace: 0
      flipU: 0
      flipV: 0
      swapUV: 0
      fill: 1
      scale: {x: 1, y: 1}
      offset: {x: 0, y: 0}
      rotation: 0
      justify: 0
      localPivot: {x: 1.75, y: 0.75}
      localSize: {x: 0, y: 0}
      anchor: 9
    _mat: {fileID: 2100000, guid: 55296d1b6ee54e14e8eb4648d4b448ee, type: 2}
    manualUV: 0
    elementGroup: 0
    textureGroup: 1
  - _indices: 770000007600000075000000770000007800000076000000
    _distinctIndices: 77000000760000007500000078000000
    _edges:
    - x: 118
      y: 117
    - x: 117
      y: 119
    - x: 119
      y: 120
    - x: 120
      y: 118
    _smoothingGroup: 0
    _uv:
      useWorldSpace: 0
      flipU: 0
      flipV: 0
      swapUV: 0
      fill: 1
      scale: {x: 1, y: 1}
      offset: {x: 0, y: 0}
      rotation: 0
      justify: 0
      localPivot: {x: 1.75, y: 0.75}
      localSize: {x: 0, y: 0}
      anchor: 9
    _mat: {fileID: 2100000, guid: 55296d1b6ee54e14e8eb4648d4b448ee, type: 2}
    manualUV: 0
    elementGroup: 0
    textureGroup: 2
  - _indices: 7b0000007a000000790000007b0000007c0000007a000000
    _distinctIndices: 7b0000007a000000790000007c000000
    _edges:
    - x: 122
      y: 121
    - x: 121
      y: 123
    - x: 123
      y: 124
    - x: 124
      y: 122
    _smoothingGroup: 0
    _uv:
      useWorldSpace: 0
      flipU: 0
      flipV: 0
      swapUV: 0
      fill: 1
      scale: {x: 1, y: 1}
      offset: {x: 0, y: 0}
      rotation: 0
      justify: 0
      localPivot: {x: 1.75, y: 0.75}
      localSize: {x: 0, y: 0}
      anchor: 9
    _mat: {fileID: 2100000, guid: 55296d1b6ee54e14e8eb4648d4b448ee, type: 2}
    manualUV: 0
    elementGroup: 0
    textureGroup: 2
  - _indices: 7d0000007e0000007f000000
    _distinctIndices: 7d0000007e0000007f000000
    _edges:
    - x: 125
      y: 126
    - x: 126
      y: 127
    - x: 127
      y: 125
    _smoothingGroup: 0
    _uv:
      useWorldSpace: 0
      flipU: 0
      flipV: 0
      swapUV: 0
      fill: 1
      scale: {x: 1, y: 1}
      offset: {x: 0, y: 0}
      rotation: 0
      justify: 0
      localPivot: {x: 1.75, y: 0.75}
      localSize: {x: 0, y: 0}
      anchor: 9
    _mat: {fileID: 2100000, guid: 55296d1b6ee54e14e8eb4648d4b448ee, type: 2}
    manualUV: 0
    elementGroup: 0
    textureGroup: 2
  - _indices: 820000008100000080000000820000008300000081000000
    _distinctIndices: 82000000810000008000000083000000
    _edges:
    - x: 129
      y: 128
    - x: 128
      y: 130
    - x: 130
      y: 131
    - x: 131
      y: 129
    _smoothingGroup: 0
    _uv:
      useWorldSpace: 0
      flipU: 0
      flipV: 0
      swapUV: 0
      fill: 1
      scale: {x: 1, y: 1}
      offset: {x: 0, y: 0}
      rotation: 0
      justify: 0
      localPivot: {x: 1.75, y: 0.75}
      localSize: {x: 0, y: 0}
      anchor: 9
    _mat: {fileID: 2100000, guid: 55296d1b6ee54e14e8eb4648d4b448ee, type: 2}
    manualUV: 0
    elementGroup: 0
    textureGroup: 2
  - _indices: 840000008500000086000000
    _distinctIndices: 840000008500000086000000
    _edges:
    - x: 132
      y: 133
    - x: 133
      y: 134
    - x: 134
      y: 132
    _smoothingGroup: 0
    _uv:
      useWorldSpace: 0
      flipU: 0
      flipV: 0
      swapUV: 0
      fill: 1
      scale: {x: 1, y: 1}
      offset: {x: 0, y: 0}
      rotation: 0
      justify: 0
      localPivot: {x: 1.75, y: 0.75}
      localSize: {x: 0, y: 0}
      anchor: 9
    _mat: {fileID: 2100000, guid: 55296d1b6ee54e14e8eb4648d4b448ee, type: 2}
    manualUV: 0
    elementGroup: 0
    textureGroup: 2
  - _indices: 890000008800000087000000890000008a00000088000000
    _distinctIndices: 8900000088000000870000008a000000
    _edges:
    - x: 136
      y: 135
    - x: 135
      y: 137
    - x: 137
      y: 138
    - x: 138
      y: 136
    _smoothingGroup: 0
    _uv:
      useWorldSpace: 0
      flipU: 0
      flipV: 0
      swapUV: 0
      fill: 1
      scale: {x: 1, y: 1}
      offset: {x: 0, y: 0}
      rotation: 0
      justify: 0
      localPivot: {x: 1.75, y: 0.75}
      localSize: {x: 0, y: 0}
      anchor: 9
    _mat: {fileID: 2100000, guid: 55296d1b6ee54e14e8eb4648d4b448ee, type: 2}
    manualUV: 0
    elementGroup: 0
    textureGroup: 2
  - _indices: 8b0000008c0000008d000000
    _distinctIndices: 8b0000008c0000008d000000
    _edges:
    - x: 139
      y: 140
    - x: 140
      y: 141
    - x: 141
      y: 139
    _smoothingGroup: 0
    _uv:
      useWorldSpace: 0
      flipU: 0
      flipV: 0
      swapUV: 0
      fill: 1
      scale: {x: 1, y: 1}
      offset: {x: 0, y: 0}
      rotation: 0
      justify: 0
      localPivot: {x: 1.75, y: 0.75}
      localSize: {x: 0, y: 0}
      anchor: 9
    _mat: {fileID: 2100000, guid: 55296d1b6ee54e14e8eb4648d4b448ee, type: 2}
    manualUV: 0
    elementGroup: 0
    textureGroup: 2
  - _indices: 900000008f0000008e00000090000000910000008f000000
    _distinctIndices: 900000008f0000008e00000091000000
    _edges:
    - x: 143
      y: 142
    - x: 142
      y: 144
    - x: 144
      y: 145
    - x: 145
      y: 143
    _smoothingGroup: 0
    _uv:
      useWorldSpace: 0
      flipU: 0
      flipV: 0
      swapUV: 0
      fill: 1
      scale: {x: 1, y: 1}
      offset: {x: 0, y: 0}
      rotation: 0
      justify: 0
      localPivot: {x: 1.75, y: 0.75}
      localSize: {x: 0, y: 0}
      anchor: 9
    _mat: {fileID: 2100000, guid: 55296d1b6ee54e14e8eb4648d4b448ee, type: 2}
    manualUV: 0
    elementGroup: 0
    textureGroup: 2
  - _indices: 920000009300000094000000
    _distinctIndices: 920000009300000094000000
    _edges:
    - x: 146
      y: 147
    - x: 147
      y: 148
    - x: 148
      y: 146
    _smoothingGroup: 0
    _uv:
      useWorldSpace: 0
      flipU: 0
      flipV: 0
      swapUV: 0
      fill: 1
      scale: {x: 1, y: 1}
      offset: {x: 0, y: 0}
      rotation: 0
      justify: 0
      localPivot: {x: 1.75, y: 0.75}
      localSize: {x: 0, y: 0}
      anchor: 9
    _mat: {fileID: 2100000, guid: 55296d1b6ee54e14e8eb4648d4b448ee, type: 2}
    manualUV: 0
    elementGroup: 0
    textureGroup: 2
  - _indices: 970000009600000095000000970000009800000096000000
    _distinctIndices: 97000000960000009500000098000000
    _edges:
    - x: 150
      y: 149
    - x: 149
      y: 151
    - x: 151
      y: 152
    - x: 152
      y: 150
    _smoothingGroup: 0
    _uv:
      useWorldSpace: 0
      flipU: 0
      flipV: 0
      swapUV: 0
      fill: 1
      scale: {x: 1, y: 1}
      offset: {x: 0, y: 0}
      rotation: 0
      justify: 0
      localPivot: {x: 1.75, y: 0.75}
      localSize: {x: 0, y: 0}
      anchor: 9
    _mat: {fileID: 2100000, guid: 55296d1b6ee54e14e8eb4648d4b448ee, type: 2}
    manualUV: 0
    elementGroup: 0
    textureGroup: 2
  - _indices: 990000009a0000009b000000
    _distinctIndices: 990000009a0000009b000000
    _edges:
    - x: 153
      y: 154
    - x: 154
      y: 155
    - x: 155
      y: 153
    _smoothingGroup: 0
    _uv:
      useWorldSpace: 0
      flipU: 0
      flipV: 0
      swapUV: 0
      fill: 1
      scale: {x: 1, y: 1}
      offset: {x: 0, y: 0}
      rotation: 0
      justify: 0
      localPivot: {x: 1.75, y: 0.75}
      localSize: {x: 0, y: 0}
      anchor: 9
    _mat: {fileID: 2100000, guid: 55296d1b6ee54e14e8eb4648d4b448ee, type: 2}
    manualUV: 0
    elementGroup: 0
    textureGroup: 2
  - _indices: 9e0000009d0000009c0000009e0000009f0000009d000000
    _distinctIndices: 9e0000009d0000009c0000009f000000
    _edges:
    - x: 157
      y: 156
    - x: 156
      y: 158
    - x: 158
      y: 159
    - x: 159
      y: 157
    _smoothingGroup: 0
    _uv:
      useWorldSpace: 0
      flipU: 0
      flipV: 0
      swapUV: 0
      fill: 1
      scale: {x: 1, y: 1}
      offset: {x: 0, y: 0}
      rotation: 0
      justify: 0
      localPivot: {x: 1.75, y: 0.75}
      localSize: {x: 0, y: 0}
      anchor: 9
    _mat: {fileID: 2100000, guid: 55296d1b6ee54e14e8eb4648d4b448ee, type: 2}
    manualUV: 0
    elementGroup: 0
    textureGroup: 2
  - _indices: a0000000a1000000a2000000
    _distinctIndices: a0000000a1000000a2000000
    _edges:
    - x: 160
      y: 161
    - x: 161
      y: 162
    - x: 162
      y: 160
    _smoothingGroup: 0
    _uv:
      useWorldSpace: 0
      flipU: 0
      flipV: 0
      swapUV: 0
      fill: 1
      scale: {x: 1, y: 1}
      offset: {x: 0, y: 0}
      rotation: 0
      justify: 0
      localPivot: {x: 1.75, y: 0.75}
      localSize: {x: 0, y: 0}
      anchor: 9
    _mat: {fileID: 2100000, guid: 55296d1b6ee54e14e8eb4648d4b448ee, type: 2}
    manualUV: 0
    elementGroup: 0
    textureGroup: 2
  - _indices: a5000000a4000000a3000000a5000000a6000000a4000000
    _distinctIndices: a5000000a4000000a3000000a6000000
    _edges:
    - x: 164
      y: 163
    - x: 163
      y: 165
    - x: 165
      y: 166
    - x: 166
      y: 164
    _smoothingGroup: 0
    _uv:
      useWorldSpace: 0
      flipU: 0
      flipV: 0
      swapUV: 0
      fill: 1
      scale: {x: 1, y: 1}
      offset: {x: 0, y: 0}
      rotation: 0
      justify: 0
      localPivot: {x: 1.75, y: 0.75}
      localSize: {x: 0, y: 0}
      anchor: 9
    _mat: {fileID: 2100000, guid: 55296d1b6ee54e14e8eb4648d4b448ee, type: 2}
    manualUV: 0
    elementGroup: 0
    textureGroup: 2
  - _indices: a7000000a8000000a9000000
    _distinctIndices: a7000000a8000000a9000000
    _edges:
    - x: 167
      y: 168
    - x: 168
      y: 169
    - x: 169
      y: 167
    _smoothingGroup: 0
    _uv:
      useWorldSpace: 0
      flipU: 0
      flipV: 0
      swapUV: 0
      fill: 1
      scale: {x: 1, y: 1}
      offset: {x: 0, y: 0}
      rotation: 0
      justify: 0
      localPivot: {x: 1.75, y: 0.75}
      localSize: {x: 0, y: 0}
      anchor: 9
    _mat: {fileID: 2100000, guid: 55296d1b6ee54e14e8eb4648d4b448ee, type: 2}
    manualUV: 0
    elementGroup: 0
    textureGroup: 2
  - _indices: aa000000ab000000ac000000ab000000ad000000ac000000
    _distinctIndices: aa000000ab000000ac000000ad000000
    _edges:
    - x: 170
      y: 171
    - x: 172
      y: 170
    - x: 171
      y: 173
    - x: 173
      y: 172
    _smoothingGroup: 0
    _uv:
      useWorldSpace: 0
      flipU: 0
      flipV: 0
      swapUV: 0
      fill: 1
      scale: {x: 1, y: 1}
      offset: {x: 0, y: 0}
      rotation: 0
      justify: 0
      localPivot: {x: 2, y: 0.75}
      localSize: {x: 0, y: 0}
      anchor: 9
    _mat: {fileID: 2100000, guid: 55296d1b6ee54e14e8eb4648d4b448ee, type: 2}
    manualUV: 0
    elementGroup: 0
    textureGroup: -1
  _sharedIndices:
  - array: 0000000075000000
  - array: 0100000040000000
  - array: 020000000400000077000000
  - array: 030000000500000042000000
  - array: 0600000008000000780000007b0000007d000000
  - array: 0700000009000000430000004600000048000000
  - array: 0a0000000c0000007e000000
  - array: 0b0000000d00000049000000
  - array: 0e000000100000007c0000007f0000008200000084000000
  - array: 0f00000011000000470000004a0000004d0000004f000000
  - array: 120000001400000085000000
  - array: 130000001500000050000000
  - array: 16000000180000008300000086000000890000008b000000
  - array: 17000000190000004e000000510000005400000056000000
  - array: 1a0000001c0000008c000000
  - array: 1b0000001d00000057000000
  - array: 1e000000200000008a0000008d0000009000000092000000
  - array: 1f0000002100000055000000580000005b0000005d000000
  - array: 220000002400000093000000
  - array: 23000000250000005e000000
  - array: 260000002800000091000000940000009700000099000000
  - array: 27000000290000005c0000005f0000006200000064000000
  - array: 2a0000002c0000009a000000
  - array: 2b0000002d00000065000000
  - array: 2e00000030000000980000009b0000009e000000a0000000
  - array: 2f000000310000006300000066000000690000006b000000
  - array: 3200000034000000a1000000
  - array: 33000000350000006c000000
  - array: 36000000380000009f000000a2000000a5000000a7000000
  - array: 37000000390000006a0000006d0000007000000072000000
  - array: 3a0000003c000000a8000000
  - array: 3b0000003d00000073000000
  - array: 3e000000a6000000a9000000ad000000
  - array: 3f0000007100000074000000ac000000
  - array: 4100000044000000
  - array: 450000004b000000
  - array: 4c00000052000000
  - array: 5300000059000000
  - array: 5a00000060000000
  - array: 6100000067000000
  - array: 680000006e000000
  - array: 6f000000aa000000
  - array: 7600000079000000
  - array: 7a00000080000000
  - array: 8100000087000000
  - array: 880000008e000000
  - array: 8f00000095000000
  - array: 960000009c000000
  - array: 9d000000a3000000
  - array: a4000000ab000000
  _vertices:
  - {x: 0, y: 0, z: 0}
  - {x: -4, y: 0, z: 0}
  - {x: 0, y: 0.1875, z: 0}
  - {x: -4, y: 0.1875, z: 0}
  - {x: 0, y: 0.1875, z: 0}
  - {x: -4, y: 0.1875, z: 0}
  - {x: 0, y: 0.1875, z: 0.4375}
  - {x: -4, y: 0.1875, z: 0.4375}
  - {x: 0, y: 0.1875, z: 0.4375}
  - {x: -4, y: 0.1875, z: 0.4375}
  - {x: 0, y: 0.375, z: 0.4375}
  - {x: -4, y: 0.375, z: 0.4375}
  - {x: 0, y: 0.375, z: 0.4375}
  - {x: -4, y: 0.375, z: 0.4375}
  - {x: 0, y: 0.375, z: 0.875}
  - {x: -4, y: 0.375, z: 0.875}
  - {x: 0, y: 0.375, z: 0.875}
  - {x: -4, y: 0.375, z: 0.875}
  - {x: 0, y: 0.5625, z: 0.875}
  - {x: -4, y: 0.5625, z: 0.875}
  - {x: 0, y: 0.5625, z: 0.875}
  - {x: -4, y: 0.5625, z: 0.875}
  - {x: 0, y: 0.5625, z: 1.3125}
  - {x: -4, y: 0.5625, z: 1.3125}
  - {x: 0, y: 0.5625, z: 1.3125}
  - {x: -4, y: 0.5625, z: 1.3125}
  - {x: 0, y: 0.75, z: 1.3125}
  - {x: -4, y: 0.75, z: 1.3125}
  - {x: 0, y: 0.75, z: 1.3125}
  - {x: -4, y: 0.75, z: 1.3125}
  - {x: 0, y: 0.75, z: 1.75}
  - {x: -4, y: 0.75, z: 1.75}
  - {x: 0, y: 0.75, z: 1.75}
  - {x: -4, y: 0.75, z: 1.75}
  - {x: 0, y: 0.9375, z: 1.75}
  - {x: -4, y: 0.9375, z: 1.75}
  - {x: 0, y: 0.9375, z: 1.75}
  - {x: -4, y: 0.9375, z: 1.75}
  - {x: 0, y: 0.9375, z: 2.1875}
  - {x: -4, y: 0.9375, z: 2.1875}
  - {x: 0, y: 0.9375, z: 2.1875}
  - {x: -4, y: 0.9375, z: 2.1875}
  - {x: 0, y: 1.125, z: 2.1875}
  - {x: -4, y: 1.125, z: 2.1875}
  - {x: 0, y: 1.125, z: 2.1875}
  - {x: -4, y: 1.125, z: 2.1875}
  - {x: 0, y: 1.125, z: 2.625}
  - {x: -4, y: 1.125, z: 2.625}
  - {x: 0, y: 1.125, z: 2.625}
  - {x: -4, y: 1.125, z: 2.625}
  - {x: 0, y: 1.3125, z: 2.625}
  - {x: -4, y: 1.3125, z: 2.625}
  - {x: 0, y: 1.3125, z: 2.625}
  - {x: -4, y: 1.3125, z: 2.625}
  - {x: 0, y: 1.3125, z: 3.0625}
  - {x: -4, y: 1.3125, z: 3.0625}
  - {x: 0, y: 1.3125, z: 3.0625}
  - {x: -4, y: 1.3125, z: 3.0625}
  - {x: 0, y: 1.5, z: 3.0625}
  - {x: -4, y: 1.5, z: 3.0625}
  - {x: 0, y: 1.5, z: 3.0625}
  - {x: -4, y: 1.5, z: 3.0625}
  - {x: 0, y: 1.5, z: 3.5}
  - {x: -4, y: 1.5, z: 3.5}
  - {x: -4, y: 0, z: 0}
  - {x: -4, y: 0, z: 0.4375}
  - {x: -4, y: 0.1875, z: 0}
  - {x: -4, y: 0.1875, z: 0.4375}
  - {x: -4, y: 0, z: 0.4375}
  - {x: -4, y: 0, z: 0.875}
  - {x: -4, y: 0.1875, z: 0.4375}
  - {x: -4, y: 0.375, z: 0.875}
  - {x: -4, y: 0.1875, z: 0.4375}
  - {x: -4, y: 0.375, z: 0.4375}
  - {x: -4, y: 0.375, z: 0.875}
  - {x: -4, y: 0, z: 0.875}
  - {x: -4, y: 0, z: 1.3125}
  - {x: -4, y: 0.375, z: 0.875}
  - {x: -4, y: 0.5625, z: 1.3125}
  - {x: -4, y: 0.375, z: 0.875}
  - {x: -4, y: 0.5625, z: 0.875}
  - {x: -4, y: 0.5625, z: 1.3125}
  - {x: -4, y: 0, z: 1.3125}
  - {x: -4, y: 0, z: 1.75}
  - {x: -4, y: 0.5625, z: 1.3125}
  - {x: -4, y: 0.75, z: 1.75}
  - {x: -4, y: 0.5625, z: 1.3125}
  - {x: -4, y: 0.75, z: 1.3125}
  - {x: -4, y: 0.75, z: 1.75}
  - {x: -4, y: 0, z: 1.75}
  - {x: -4, y: 0, z: 2.1875}
  - {x: -4, y: 0.75, z: 1.75}
  - {x: -4, y: 0.9375, z: 2.1875}
  - {x: -4, y: 0.75, z: 1.75}
  - {x: -4, y: 0.9375, z: 1.75}
  - {x: -4, y: 0.9375, z: 2.1875}
  - {x: -4, y: 0, z: 2.1875}
  - {x: -4, y: 0, z: 2.625}
  - {x: -4, y: 0.9375, z: 2.1875}
  - {x: -4, y: 1.125, z: 2.625}
  - {x: -4, y: 0.9375, z: 2.1875}
  - {x: -4, y: 1.125, z: 2.1875}
  - {x: -4, y: 1.125, z: 2.625}
  - {x: -4, y: 0, z: 2.625}
  - {x: -4, y: 0, z: 3.0625}
  - {x: -4, y: 1.125, z: 2.625}
  - {x: -4, y: 1.3125, z: 3.0625}
  - {x: -4, y: 1.125, z: 2.625}
  - {x: -4, y: 1.3125, z: 2.625}
  - {x: -4, y: 1.3125, z: 3.0625}
  - {x: -4, y: 0, z: 3.0625}
  - {x: -4, y: 0, z: 3.5}
  - {x: -4, y: 1.3125, z: 3.0625}
  - {x: -4, y: 1.5, z: 3.5}
  - {x: -4, y: 1.3125, z: 3.0625}
  - {x: -4, y: 1.5, z: 3.0625}
  - {x: -4, y: 1.5, z: 3.5}
  - {x: 0, y: 0, z: 0}
  - {x: 0, y: 0, z: 0.4375}
  - {x: 0, y: 0.1875, z: 0}
  - {x: 0, y: 0.1875, z: 0.4375}
  - {x: 0, y: 0, z: 0.4375}
  - {x: 0, y: 0, z: 0.875}
  - {x: 0, y: 0.1875, z: 0.4375}
  - {x: 0, y: 0.375, z: 0.875}
  - {x: 0, y: 0.1875, z: 0.4375}
  - {x: 0, y: 0.375, z: 0.4375}
  - {x: 0, y: 0.375, z: 0.875}
  - {x: 0, y: 0, z: 0.875}
  - {x: 0, y: 0, z: 1.3125}
  - {x: 0, y: 0.375, z: 0.875}
  - {x: 0, y: 0.5625, z: 1.3125}
  - {x: 0, y: 0.375, z: 0.875}
  - {x: 0, y: 0.5625, z: 0.875}
  - {x: 0, y: 0.5625, z: 1.3125}
  - {x: 0, y: 0, z: 1.3125}
  - {x: 0, y: 0, z: 1.75}
  - {x: 0, y: 0.5625, z: 1.3125}
  - {x: 0, y: 0.75, z: 1.75}
  - {x: 0, y: 0.5625, z: 1.3125}
  - {x: 0, y: 0.75, z: 1.3125}
  - {x: 0, y: 0.75, z: 1.75}
  - {x: 0, y: 0, z: 1.75}
  - {x: 0, y: 0, z: 2.1875}
  - {x: 0, y: 0.75, z: 1.75}
  - {x: 0, y: 0.9375, z: 2.1875}
  - {x: 0, y: 0.75, z: 1.75}
  - {x: 0, y: 0.9375, z: 1.75}
  - {x: 0, y: 0.9375, z: 2.1875}
  - {x: 0, y: 0, z: 2.1875}
  - {x: 0, y: 0, z: 2.625}
  - {x: 0, y: 0.9375, z: 2.1875}
  - {x: 0, y: 1.125, z: 2.625}
  - {x: 0, y: 0.9375, z: 2.1875}
  - {x: 0, y: 1.125, z: 2.1875}
  - {x: 0, y: 1.125, z: 2.625}
  - {x: 0, y: 0, z: 2.625}
  - {x: 0, y: 0, z: 3.0625}
  - {x: 0, y: 1.125, z: 2.625}
  - {x: 0, y: 1.3125, z: 3.0625}
  - {x: 0, y: 1.125, z: 2.625}
  - {x: 0, y: 1.3125, z: 2.625}
  - {x: 0, y: 1.3125, z: 3.0625}
  - {x: 0, y: 0, z: 3.0625}
  - {x: 0, y: 0, z: 3.5}
  - {x: 0, y: 1.3125, z: 3.0625}
  - {x: 0, y: 1.5, z: 3.5}
  - {x: 0, y: 1.3125, z: 3.0625}
  - {x: 0, y: 1.5, z: 3.0625}
  - {x: 0, y: 1.5, z: 3.5}
  - {x: -4, y: 0, z: 3.5}
  - {x: 0, y: 0, z: 3.5}
  - {x: -4, y: 1.5, z: 3.5}
  - {x: 0, y: 1.5, z: 3.5}
  _uv:
  - {x: 0, y: 0}
  - {x: -4, y: 0}
  - {x: 0, y: 0.1875}
  - {x: -4, y: 0.1875}
  - {x: 0, y: 0}
  - {x: -4, y: 0}
  - {x: 0, y: 0.4375}
  - {x: -4, y: 0.4375}
  - {x: 0, y: 0.1875}
  - {x: -4, y: 0.1875}
  - {x: 0, y: 0.375}
  - {x: -4, y: 0.375}
  - {x: 0, y: 0.4375}
  - {x: -4, y: 0.4375}
  - {x: 0, y: 0.875}
  - {x: -4, y: 0.875}
  - {x: 0, y: 0.375}
  - {x: -4, y: 0.375}
  - {x: 0, y: 0.5625}
  - {x: -4, y: 0.5625}
  - {x: 0, y: 0.875}
  - {x: -4, y: 0.875}
  - {x: 0, y: 1.3125}
  - {x: -4, y: 1.3125}
  - {x: 0, y: 0.5625}
  - {x: -4, y: 0.5625}
  - {x: 0, y: 0.75}
  - {x: -4, y: 0.75}
  - {x: 0, y: 1.3125}
  - {x: -4, y: 1.3125}
  - {x: 0, y: 1.75}
  - {x: -4, y: 1.75}
  - {x: 0, y: 0.75}
  - {x: -4, y: 0.75}
  - {x: 0, y: 0.9375}
  - {x: -4, y: 0.9375}
  - {x: 0, y: 1.75}
  - {x: -4, y: 1.75}
  - {x: 0, y: 2.1875}
  - {x: -4, y: 2.1875}
  - {x: 0, y: 0.9375}
  - {x: -4, y: 0.9375}
  - {x: 0, y: 1.125}
  - {x: -4, y: 1.125}
  - {x: 0, y: 2.1875}
  - {x: -4, y: 2.1875}
  - {x: 0, y: 2.625}
  - {x: -4, y: 2.625}
  - {x: 0, y: 1.125}
  - {x: -4, y: 1.125}
  - {x: 0, y: 1.3125}
  - {x: -4, y: 1.3125}
  - {x: 0, y: 2.625}
  - {x: -4, y: 2.625}
  - {x: 0, y: 3.0625}
  - {x: -4, y: 3.0625}
  - {x: 0, y: 1.3125}
  - {x: -4, y: 1.3125}
  - {x: 0, y: 1.5}
  - {x: -4, y: 1.5}
  - {x: 0, y: 3.0625}
  - {x: -4, y: 3.0625}
  - {x: 0, y: 3.5}
  - {x: -4, y: 3.5}
  - {x: 0, y: 0}
  - {x: 0.4375, y: 0}
  - {x: 0, y: 0.1875}
  - {x: 0.4375, y: 0.1875}
  - {x: 0.4375, y: 0}
  - {x: 0.875, y: 0}
  - {x: 0.4375, y: 0.1875}
  - {x: 0.875, y: 0.375}
  - {x: 0.4375, y: 0.1875}
  - {x: 0.4375, y: 0.375}
  - {x: 0.875, y: 0.375}
  - {x: 0.875, y: 0}
  - {x: 1.3125, y: 0}
  - {x: 0.875, y: 0.375}
  - {x: 1.3125, y: 0.5625}
  - {x: 0.875, y: 0.375}
  - {x: 0.875, y: 0.5625}
  - {x: 1.3125, y: 0.5625}
  - {x: 1.3125, y: 0}
  - {x: 1.75, y: 0}
  - {x: 1.3125, y: 0.5625}
  - {x: 1.75, y: 0.75}
  - {x: 1.3125, y: 0.5625}
  - {x: 1.3125, y: 0.75}
  - {x: 1.75, y: 0.75}
  - {x: 1.75, y: 0}
  - {x: 2.1875, y: 0}
  - {x: 1.75, y: 0.75}
  - {x: 2.1875, y: 0.9375}
  - {x: 1.75, y: 0.75}
  - {x: 1.75, y: 0.9375}
  - {x: 2.1875, y: 0.9375}
  - {x: 2.1875, y: 0}
  - {x: 2.625, y: 0}
  - {x: 2.1875, y: 0.9375}
  - {x: 2.625, y: 1.125}
  - {x: 2.1875, y: 0.9375}
  - {x: 2.1875, y: 1.125}
  - {x: 2.625, y: 1.125}
  - {x: 2.625, y: 0}
  - {x: 3.0625, y: 0}
  - {x: 2.625, y: 1.125}
  - {x: 3.0625, y: 1.3125}
  - {x: 2.625, y: 1.125}
  - {x: 2.625, y: 1.3125}
  - {x: 3.0625, y: 1.3125}
  - {x: 3.0625, y: 0}
  - {x: 3.5, y: 0}
  - {x: 3.0625, y: 1.3125}
  - {x: 3.5, y: 1.5}
  - {x: 3.0625, y: 1.3125}
  - {x: 3.0625, y: 1.5}
  - {x: 3.5, y: 1.5}
  - {x: 0, y: 0}
  - {x: 0.4375, y: 0}
  - {x: 0, y: 0.1875}
  - {x: 0.4375, y: 0.1875}
  - {x: 0.4375, y: 0}
  - {x: 0.875, y: 0}
  - {x: 0.4375, y: 0.1875}
  - {x: 0.875, y: 0.375}
  - {x: 0.4375, y: 0.1875}
  - {x: 0.4375, y: 0.375}
  - {x: 0.875, y: 0.375}
  - {x: 0.875, y: 0}
  - {x: 1.3125, y: 0}
  - {x: 0.875, y: 0.375}
  - {x: 1.3125, y: 0.5625}
  - {x: 0.875, y: 0.375}
  - {x: 0.875, y: 0.5625}
  - {x: 1.3125, y: 0.5625}
  - {x: 1.3125, y: 0}
  - {x: 1.75, y: 0}
  - {x: 1.3125, y: 0.5625}
  - {x: 1.75, y: 0.75}
  - {x: 1.3125, y: 0.5625}
  - {x: 1.3125, y: 0.75}
  - {x: 1.75, y: 0.75}
  - {x: 1.75, y: 0}
  - {x: 2.1875, y: 0}
  - {x: 1.75, y: 0.75}
  - {x: 2.1875, y: 0.9375}
  - {x: 1.75, y: 0.75}
  - {x: 1.75, y: 0.9375}
  - {x: 2.1875, y: 0.9375}
  - {x: 2.1875, y: 0}
  - {x: 2.625, y: 0}
  - {x: 2.1875, y: 0.9375}
  - {x: 2.625, y: 1.125}
  - {x: 2.1875, y: 0.9375}
  - {x: 2.1875, y: 1.125}
  - {x: 2.625, y: 1.125}
  - {x: 2.625, y: 0}
  - {x: 3.0625, y: 0}
  - {x: 2.625, y: 1.125}
  - {x: 3.0625, y: 1.3125}
  - {x: 2.625, y: 1.125}
  - {x: 2.625, y: 1.3125}
  - {x: 3.0625, y: 1.3125}
  - {x: 3.0625, y: 0}
  - {x: 3.5, y: 0}
  - {x: 3.0625, y: 1.3125}
  - {x: 3.5, y: 1.5}
  - {x: 3.0625, y: 1.3125}
  - {x: 3.0625, y: 1.5}
  - {x: 3.5, y: 1.5}
  - {x: 4, y: 0}
  - {x: 0, y: 0}
  - {x: 4, y: 1.5}
  - {x: 0, y: 1.5}
  _uv3: []
  _uv4: []
  _tangents: []
  _sharedIndicesUV: []
  _colors:
  - {r: 1, g: 1, b: 1, a: 1}
  - {r: 1, g: 1, b: 1, a: 1}
  - {r: 1, g: 1, b: 1, a: 1}
  - {r: 1, g: 1, b: 1, a: 1}
  - {r: 1, g: 1, b: 1, a: 1}
  - {r: 1, g: 1, b: 1, a: 1}
  - {r: 1, g: 1, b: 1, a: 1}
  - {r: 1, g: 1, b: 1, a: 1}
  - {r: 1, g: 1, b: 1, a: 1}
  - {r: 1, g: 1, b: 1, a: 1}
  - {r: 1, g: 1, b: 1, a: 1}
  - {r: 1, g: 1, b: 1, a: 1}
  - {r: 1, g: 1, b: 1, a: 1}
  - {r: 1, g: 1, b: 1, a: 1}
  - {r: 1, g: 1, b: 1, a: 1}
  - {r: 1, g: 1, b: 1, a: 1}
  - {r: 1, g: 1, b: 1, a: 1}
  - {r: 1, g: 1, b: 1, a: 1}
  - {r: 1, g: 1, b: 1, a: 1}
  - {r: 1, g: 1, b: 1, a: 1}
  - {r: 1, g: 1, b: 1, a: 1}
  - {r: 1, g: 1, b: 1, a: 1}
  - {r: 1, g: 1, b: 1, a: 1}
  - {r: 1, g: 1, b: 1, a: 1}
  - {r: 1, g: 1, b: 1, a: 1}
  - {r: 1, g: 1, b: 1, a: 1}
  - {r: 1, g: 1, b: 1, a: 1}
  - {r: 1, g: 1, b: 1, a: 1}
  - {r: 1, g: 1, b: 1, a: 1}
  - {r: 1, g: 1, b: 1, a: 1}
  - {r: 1, g: 1, b: 1, a: 1}
  - {r: 1, g: 1, b: 1, a: 1}
  - {r: 1, g: 1, b: 1, a: 1}
  - {r: 1, g: 1, b: 1, a: 1}
  - {r: 1, g: 1, b: 1, a: 1}
  - {r: 1, g: 1, b: 1, a: 1}
  - {r: 1, g: 1, b: 1, a: 1}
  - {r: 1, g: 1, b: 1, a: 1}
  - {r: 1, g: 1, b: 1, a: 1}
  - {r: 1, g: 1, b: 1, a: 1}
  - {r: 1, g: 1, b: 1, a: 1}
  - {r: 1, g: 1, b: 1, a: 1}
  - {r: 1, g: 1, b: 1, a: 1}
  - {r: 1, g: 1, b: 1, a: 1}
  - {r: 1, g: 1, b: 1, a: 1}
  - {r: 1, g: 1, b: 1, a: 1}
  - {r: 1, g: 1, b: 1, a: 1}
  - {r: 1, g: 1, b: 1, a: 1}
  - {r: 1, g: 1, b: 1, a: 1}
  - {r: 1, g: 1, b: 1, a: 1}
  - {r: 1, g: 1, b: 1, a: 1}
  - {r: 1, g: 1, b: 1, a: 1}
  - {r: 1, g: 1, b: 1, a: 1}
  - {r: 1, g: 1, b: 1, a: 1}
  - {r: 1, g: 1, b: 1, a: 1}
  - {r: 1, g: 1, b: 1, a: 1}
  - {r: 1, g: 1, b: 1, a: 1}
  - {r: 1, g: 1, b: 1, a: 1}
  - {r: 1, g: 1, b: 1, a: 1}
  - {r: 1, g: 1, b: 1, a: 1}
  - {r: 1, g: 1, b: 1, a: 1}
  - {r: 1, g: 1, b: 1, a: 1}
  - {r: 1, g: 1, b: 1, a: 1}
  - {r: 1, g: 1, b: 1, a: 1}
  - {r: 1, g: 1, b: 1, a: 1}
  - {r: 1, g: 1, b: 1, a: 1}
  - {r: 1, g: 1, b: 1, a: 1}
  - {r: 1, g: 1, b: 1, a: 1}
  - {r: 1, g: 1, b: 1, a: 1}
  - {r: 1, g: 1, b: 1, a: 1}
  - {r: 1, g: 1, b: 1, a: 1}
  - {r: 1, g: 1, b: 1, a: 1}
  - {r: 1, g: 1, b: 1, a: 1}
  - {r: 1, g: 1, b: 1, a: 1}
  - {r: 1, g: 1, b: 1, a: 1}
  - {r: 1, g: 1, b: 1, a: 1}
  - {r: 1, g: 1, b: 1, a: 1}
  - {r: 1, g: 1, b: 1, a: 1}
  - {r: 1, g: 1, b: 1, a: 1}
  - {r: 1, g: 1, b: 1, a: 1}
  - {r: 1, g: 1, b: 1, a: 1}
  - {r: 1, g: 1, b: 1, a: 1}
  - {r: 1, g: 1, b: 1, a: 1}
  - {r: 1, g: 1, b: 1, a: 1}
  - {r: 1, g: 1, b: 1, a: 1}
  - {r: 1, g: 1, b: 1, a: 1}
  - {r: 1, g: 1, b: 1, a: 1}
  - {r: 1, g: 1, b: 1, a: 1}
  - {r: 1, g: 1, b: 1, a: 1}
  - {r: 1, g: 1, b: 1, a: 1}
  - {r: 1, g: 1, b: 1, a: 1}
  - {r: 1, g: 1, b: 1, a: 1}
  - {r: 1, g: 1, b: 1, a: 1}
  - {r: 1, g: 1, b: 1, a: 1}
  - {r: 1, g: 1, b: 1, a: 1}
  - {r: 1, g: 1, b: 1, a: 1}
  - {r: 1, g: 1, b: 1, a: 1}
  - {r: 1, g: 1, b: 1, a: 1}
  - {r: 1, g: 1, b: 1, a: 1}
  - {r: 1, g: 1, b: 1, a: 1}
  - {r: 1, g: 1, b: 1, a: 1}
  - {r: 1, g: 1, b: 1, a: 1}
  - {r: 1, g: 1, b: 1, a: 1}
  - {r: 1, g: 1, b: 1, a: 1}
  - {r: 1, g: 1, b: 1, a: 1}
  - {r: 1, g: 1, b: 1, a: 1}
  - {r: 1, g: 1, b: 1, a: 1}
  - {r: 1, g: 1, b: 1, a: 1}
  - {r: 1, g: 1, b: 1, a: 1}
  - {r: 1, g: 1, b: 1, a: 1}
  - {r: 1, g: 1, b: 1, a: 1}
  - {r: 1, g: 1, b: 1, a: 1}
  - {r: 1, g: 1, b: 1, a: 1}
  - {r: 1, g: 1, b: 1, a: 1}
  - {r: 1, g: 1, b: 1, a: 1}
  - {r: 1, g: 1, b: 1, a: 1}
  - {r: 1, g: 1, b: 1, a: 1}
  - {r: 1, g: 1, b: 1, a: 1}
  - {r: 1, g: 1, b: 1, a: 1}
  - {r: 1, g: 1, b: 1, a: 1}
  - {r: 1, g: 1, b: 1, a: 1}
  - {r: 1, g: 1, b: 1, a: 1}
  - {r: 1, g: 1, b: 1, a: 1}
  - {r: 1, g: 1, b: 1, a: 1}
  - {r: 1, g: 1, b: 1, a: 1}
  - {r: 1, g: 1, b: 1, a: 1}
  - {r: 1, g: 1, b: 1, a: 1}
  - {r: 1, g: 1, b: 1, a: 1}
  - {r: 1, g: 1, b: 1, a: 1}
  - {r: 1, g: 1, b: 1, a: 1}
  - {r: 1, g: 1, b: 1, a: 1}
  - {r: 1, g: 1, b: 1, a: 1}
  - {r: 1, g: 1, b: 1, a: 1}
  - {r: 1, g: 1, b: 1, a: 1}
  - {r: 1, g: 1, b: 1, a: 1}
  - {r: 1, g: 1, b: 1, a: 1}
  - {r: 1, g: 1, b: 1, a: 1}
  - {r: 1, g: 1, b: 1, a: 1}
  - {r: 1, g: 1, b: 1, a: 1}
  - {r: 1, g: 1, b: 1, a: 1}
  - {r: 1, g: 1, b: 1, a: 1}
  - {r: 1, g: 1, b: 1, a: 1}
  - {r: 1, g: 1, b: 1, a: 1}
  - {r: 1, g: 1, b: 1, a: 1}
  - {r: 1, g: 1, b: 1, a: 1}
  - {r: 1, g: 1, b: 1, a: 1}
  - {r: 1, g: 1, b: 1, a: 1}
  - {r: 1, g: 1, b: 1, a: 1}
  - {r: 1, g: 1, b: 1, a: 1}
  - {r: 1, g: 1, b: 1, a: 1}
  - {r: 1, g: 1, b: 1, a: 1}
  - {r: 1, g: 1, b: 1, a: 1}
  - {r: 1, g: 1, b: 1, a: 1}
  - {r: 1, g: 1, b: 1, a: 1}
  - {r: 1, g: 1, b: 1, a: 1}
  - {r: 1, g: 1, b: 1, a: 1}
  - {r: 1, g: 1, b: 1, a: 1}
  - {r: 1, g: 1, b: 1, a: 1}
  - {r: 1, g: 1, b: 1, a: 1}
  - {r: 1, g: 1, b: 1, a: 1}
  - {r: 1, g: 1, b: 1, a: 1}
  - {r: 1, g: 1, b: 1, a: 1}
  - {r: 1, g: 1, b: 1, a: 1}
  - {r: 1, g: 1, b: 1, a: 1}
  - {r: 1, g: 1, b: 1, a: 1}
  - {r: 1, g: 1, b: 1, a: 1}
  - {r: 1, g: 1, b: 1, a: 1}
  - {r: 1, g: 1, b: 1, a: 1}
  - {r: 1, g: 1, b: 1, a: 1}
  - {r: 1, g: 1, b: 1, a: 1}
  - {r: 1, g: 1, b: 1, a: 1}
  - {r: 1, g: 1, b: 1, a: 1}
  - {r: 1, g: 1, b: 1, a: 1}
  - {r: 1, g: 1, b: 1, a: 1}
  userCollisions: 0
  isSelectable: 1
  unwrapParameters:
    hardAngle: 88
    packMargin: 4
    angleError: 8
    areaError: 15
  asset_guid: 
  dontDestroyMeshOnDelete: 0
  m_selectedFaces: 
  m_SelectedEdges: []
  m_selectedTriangles: 
--- !u!114 &114490706802114866
MonoBehaviour:
  m_ObjectHideFlags: 1
  m_PrefabParentObject: {fileID: 0}
  m_PrefabInternal: {fileID: 100100000}
  m_GameObject: {fileID: 1260046745105948}
  m_Enabled: 1
  m_EditorHideFlags: 0
  m_Script: {fileID: 185759285, guid: 0472bdc8d6d15384d98f22ee34302f9c, type: 3}
  m_Name: 
  m_EditorClassIdentifier: 
  _quads:
  - _indices: 000000000100000002000000010000000300000002000000
    _distinctIndices: 00000000010000000200000003000000
    _edges:
    - x: 0
      y: 1
    - x: 2
      y: 0
    - x: 1
      y: 3
    - x: 3
      y: 2
    _smoothingGroup: 0
    _uv:
      useWorldSpace: 0
      flipU: 0
      flipV: 0
      swapUV: 0
      fill: 1
      scale: {x: 1, y: 1}
      offset: {x: 0, y: 0}
      rotation: 0
      justify: 0
      localPivot: {x: -4.555221, y: 1.751374}
      localSize: {x: 0, y: 0}
      anchor: 9
    _mat: {fileID: 2100000, guid: 55296d1b6ee54e14e8eb4648d4b448ee, type: 2}
    manualUV: 0
    elementGroup: -1
    textureGroup: -1
  - _indices: 040000000500000006000000050000000700000006000000
    _distinctIndices: 04000000050000000600000007000000
    _edges:
    - x: 4
      y: 5
    - x: 6
      y: 4
    - x: 5
      y: 7
    - x: 7
      y: 6
    _smoothingGroup: 0
    _uv:
      useWorldSpace: 0
      flipU: 0
      flipV: 0
      swapUV: 0
      fill: 1
      scale: {x: 1, y: 1}
      offset: {x: 0, y: 0}
      rotation: 0
      justify: 0
      localPivot: {x: -2.7657275, y: 1.9719934}
      localSize: {x: 0, y: 0}
      anchor: 9
    _mat: {fileID: 2100000, guid: 55296d1b6ee54e14e8eb4648d4b448ee, type: 2}
    manualUV: 0
    elementGroup: -1
    textureGroup: -1
  - _indices: 08000000090000000a000000090000000b0000000a000000
    _distinctIndices: 08000000090000000a0000000b000000
    _edges:
    - x: 8
      y: 9
    - x: 10
      y: 8
    - x: 9
      y: 11
    - x: 11
      y: 10
    _smoothingGroup: 0
    _uv:
      useWorldSpace: 0
      flipU: 0
      flipV: 0
      swapUV: 0
      fill: 1
      scale: {x: 1, y: 1}
      offset: {x: 0, y: 0}
      rotation: 0
      justify: 0
      localPivot: {x: 4.308375, y: 1.3234053}
      localSize: {x: 0, y: 0}
      anchor: 9
    _mat: {fileID: 2100000, guid: 55296d1b6ee54e14e8eb4648d4b448ee, type: 2}
    manualUV: 0
    elementGroup: -1
    textureGroup: -1
  - _indices: 0c0000000d0000000e0000000d0000000f0000000e000000
    _distinctIndices: 0c0000000d0000000e0000000f000000
    _edges:
    - x: 12
      y: 13
    - x: 14
      y: 12
    - x: 13
      y: 15
    - x: 15
      y: 14
    _smoothingGroup: 0
    _uv:
      useWorldSpace: 0
      flipU: 0
      flipV: 0
      swapUV: 0
      fill: 1
      scale: {x: 1, y: 1}
      offset: {x: 0, y: 0}
      rotation: 0
      justify: 0
      localPivot: {x: 0.84016734, y: 1.5979482}
      localSize: {x: 0, y: 0}
      anchor: 9
    _mat: {fileID: 2100000, guid: 55296d1b6ee54e14e8eb4648d4b448ee, type: 2}
    manualUV: 0
    elementGroup: -1
    textureGroup: -1
  - _indices: 100000001100000012000000110000001300000012000000
    _distinctIndices: 10000000110000001200000013000000
    _edges:
    - x: 16
      y: 17
    - x: 18
      y: 16
    - x: 17
      y: 19
    - x: 19
      y: 18
    _smoothingGroup: 0
    _uv:
      useWorldSpace: 0
      flipU: 0
      flipV: 0
      swapUV: 0
      fill: 1
      scale: {x: 1, y: 1}
      offset: {x: 0, y: 0}
      rotation: 0
      justify: 0
      localPivot: {x: 4.6832423, y: 0.26010114}
      localSize: {x: 0, y: 0}
      anchor: 9
    _mat: {fileID: 2100000, guid: 55296d1b6ee54e14e8eb4648d4b448ee, type: 2}
    manualUV: 0
    elementGroup: -1
    textureGroup: -1
  - _indices: 140000001500000016000000150000001700000016000000
    _distinctIndices: 14000000150000001600000017000000
    _edges:
    - x: 20
      y: 21
    - x: 22
      y: 20
    - x: 21
      y: 23
    - x: 23
      y: 22
    _smoothingGroup: 0
    _uv:
      useWorldSpace: 0
      flipU: 0
      flipV: 0
      swapUV: 0
      fill: 1
      scale: {x: 1, y: 1}
      offset: {x: 0, y: 0}
      rotation: 0
      justify: 0
      localPivot: {x: -4.2560744, y: -0.8756708}
      localSize: {x: 0, y: 0}
      anchor: 9
    _mat: {fileID: 2100000, guid: 55296d1b6ee54e14e8eb4648d4b448ee, type: 2}
    manualUV: 0
    elementGroup: -1
    textureGroup: -1
  _sharedIndices:
  - array: 000000000d00000016000000
  - array: 010000000400000017000000
  - array: 020000000f00000010000000
  - array: 030000000600000011000000
  - array: 050000000800000015000000
  - array: 070000000a00000013000000
  - array: 090000000c00000014000000
  - array: 0b0000000e00000012000000
  _vertices:
  - {x: 0, y: 0, z: 0}
  - {x: 9, y: 0, z: 0}
  - {x: 0.08641772, y: 3.3629072, z: -0.023442874}
  - {x: 9.110442, y: 3.502151, z: -0.097820565}
  - {x: 9, y: 0, z: 0}
  - {x: 9.377681, y: 0.23100898, z: -1.7492938}
  - {x: 9.110442, y: 3.502151, z: -0.097820565}
  - {x: 9.164946, y: 3.2565033, z: -1.1460937}
  - {x: 9.377681, y: 0.23100898, z: -1.7492938}
  - {x: -0.86511433, y: -0.10016556, z: -1.4669399}
  - {x: 9.164946, y: 3.2565033, z: -1.1460937}
  - {x: 0.16804911, y: 3.0760465, z: -1.1131493}
  - {x: -0.86511433, y: -0.10016556, z: -1.4669399}
  - {x: 0, y: 0, z: 0}
  - {x: 0.16804911, y: 3.0760465, z: -1.1131493}
  - {x: 0.08641772, y: 3.3629072, z: -0.023442874}
  - {x: 0.08641772, y: 3.3629072, z: -0.023442874}
  - {x: 9.110442, y: 3.502151, z: -0.097820565}
  - {x: 0.16804911, y: 3.0760465, z: -1.1131493}
  - {x: 9.164946, y: 3.2565033, z: -1.1460937}
  - {x: -0.86511433, y: -0.10016556, z: -1.4669399}
  - {x: 9.377681, y: 0.23100898, z: -1.7492938}
  - {x: 0, y: 0, z: 0}
  - {x: 9, y: 0, z: 0}
  _uv:
  - {x: 0, y: 0}
  - {x: -9, y: 0}
  - {x: -0.08641772, y: 3.362989}
  - {x: -9.110442, y: 3.502748}
  - {x: -1.8709319, y: 0.22036904}
  - {x: -3.6605234, y: 0.45145044}
  - {x: -1.9895743, y: 3.7236178}
  - {x: -3.0262773, y: 3.4739268}
  - {x: 9.431614, y: -0.049613763}
  - {x: -0.81486446, y: -0.38714528}
  - {x: 9.198544, y: 3.0339558}
  - {x: 0.20570558, y: 2.8043163}
  - {x: 1.7028853, y: -0.10271545}
  - {x: 0, y: 0}
  - {x: 0.8828712, y: 3.154353}
  - {x: -0.022550536, y: 3.2986119}
  - {x: 0.14561911, y: 0.83680487}
  - {x: 9.170696, y: 0.7598689}
  - {x: 0.22218674, y: -0.29038203}
  - {x: 9.220865, y: -0.31660256}
  - {x: 0.86799484, y: -1.4686571}
  - {x: -9.380144, y: -1.7513416}
  - {x: 0, y: 0}
  - {x: -8.994904, y: -0.014639927}
  _uv3: []
  _uv4: []
  _tangents: []
  _sharedIndicesUV: []
  _colors:
  - {r: 1, g: 1, b: 1, a: 1}
  - {r: 1, g: 1, b: 1, a: 1}
  - {r: 1, g: 1, b: 1, a: 1}
  - {r: 1, g: 1, b: 1, a: 1}
  - {r: 1, g: 1, b: 1, a: 1}
  - {r: 1, g: 1, b: 1, a: 1}
  - {r: 1, g: 1, b: 1, a: 1}
  - {r: 1, g: 1, b: 1, a: 1}
  - {r: 1, g: 1, b: 1, a: 1}
  - {r: 1, g: 1, b: 1, a: 1}
  - {r: 1, g: 1, b: 1, a: 1}
  - {r: 1, g: 1, b: 1, a: 1}
  - {r: 1, g: 1, b: 1, a: 1}
  - {r: 1, g: 1, b: 1, a: 1}
  - {r: 1, g: 1, b: 1, a: 1}
  - {r: 1, g: 1, b: 1, a: 1}
  - {r: 1, g: 1, b: 1, a: 1}
  - {r: 1, g: 1, b: 1, a: 1}
  - {r: 1, g: 1, b: 1, a: 1}
  - {r: 1, g: 1, b: 1, a: 1}
  - {r: 1, g: 1, b: 1, a: 1}
  - {r: 1, g: 1, b: 1, a: 1}
  - {r: 1, g: 1, b: 1, a: 1}
  - {r: 1, g: 1, b: 1, a: 1}
  userCollisions: 0
  isSelectable: 1
  unwrapParameters:
    hardAngle: 88
    packMargin: 4
    angleError: 8
    areaError: 15
  asset_guid: 
  dontDestroyMeshOnDelete: 0
  m_selectedFaces: 
  m_SelectedEdges: []
  m_selectedTriangles: 
--- !u!114 &114950759345249726
MonoBehaviour:
  m_ObjectHideFlags: 1
  m_PrefabParentObject: {fileID: 0}
  m_PrefabInternal: {fileID: 100100000}
  m_GameObject: {fileID: 1382983750293994}
  m_Enabled: 1
  m_EditorHideFlags: 0
  m_Script: {fileID: 16342205, guid: 0472bdc8d6d15384d98f22ee34302f9c, type: 3}
  m_Name: 
  m_EditorClassIdentifier: 
  _entityType: 0
